数字电子技术基础/数电实验/EDA02/EDA02文件/Calculator/simulation/qsim/AddAndMinus.msim.vcd
$comment
	File created using the following command:
		vcd file AddAndMinus.msim.vcd -direction
$end
$date
	Thu Nov 17 15:19:59 2022
$end
$version
	ModelSim Version 10.1d
$end
$timescale
	1ps
$end
$scope module AddAndMinus_vlg_vec_tst $end
$var reg 1 ! A0 $end
$var reg 1 " A1 $end
$var reg 1 # A2 $end
$var reg 1 $ A3 $end
$var reg 1 % B0 $end
$var reg 1 & B1 $end
$var reg 1 ' B2 $end
$var reg 1 ( B3 $end
$var wire 1 ) S0 $end
$var wire 1 * S1 $end
$var wire 1 + S2 $end
$var wire 1 , S3 $end
$var wire 1 - Symbol $end
$var wire 1 . sampler $end
$scope module i1 $end
$var wire 1 / gnd $end
$var wire 1 0 vcc $end
$var wire 1 1 unknown $end
$var tri1 1 2 devclrn $end
$var tri1 1 3 devpor $end
$var tri1 1 4 devoe $end
$var wire 1 5 A0~combout $end
$var wire 1 6 B0~combout $end
$var wire 1 7 inst3|inst~0_combout $end
$var wire 1 8 A1~combout $end
$var wire 1 9 A3~combout $end
$var wire 1 : inst|inst4|inst~0_combout $end
$var wire 1 ; B1~combout $end
$var wire 1 < B3~combout $end
$var wire 1 = inst1|inst4|inst~0_combout $end
$var wire 1 > inst2|inst5|inst1~0_combout $end
$var wire 1 ? B2~combout $end
$var wire 1 @ inst1|inst5|inst3~combout $end
$var wire 1 A A2~combout $end
$var wire 1 B inst|inst9|inst~0_combout $end
$var wire 1 C inst|inst5|inst~combout $end
$var wire 1 D inst2|inst5|inst4~0_combout $end
$var wire 1 E inst2|inst6|inst4~0_combout $end
$var wire 1 F inst2|inst6|inst4~1_combout $end
$var wire 1 G inst2|inst8|inst1~0_combout $end
$var wire 1 H inst3|inst7|inst~combout $end
$var wire 1 I inst3|inst7|inst3~combout $end
$var wire 1 J inst3|inst2~0_combout $end
$var wire 1 K inst3|inst2~combout $end
$var wire 1 L inst3|inst8|inst~combout $end
$var wire 1 M inst3|inst9|inst~0_combout $end
$var wire 1 N inst3|inst9|inst~1_combout $end
$upscope $end
$upscope $end
$enddefinitions $end
#0
$dumpvars
0!
0"
0#
0$
0%
0&
0'
0(
0)
0*
0+
0,
0-
x.
0/
10
x1
12
13
14
05
06
07
08
09
0:
0;
0<
0=
0>
0?
1@
0A
0B
1C
0D
0E
0F
0G
0H
1I
1J
0K
1L
1M
1N
$end
#390000
1(
1<
0.
0M
1G
0@
1K
0I
1M
0G
1-
0N
0K
1I
0-
1N
1,
0,
#780000
0(
0<
1.
0M
1@
0N
1M
1N
1,
0,
#781250
1'
1?
0.
0J
1K
0L
1+
#1170000
1(
1<
1.
0M
1G
0K
0I
1-
#1560000
0(
0<
0.
1M
0G
1K
1I
0-
#1562500
1&
0'
1;
0?
1.
1J
1=
0K
1>
1L
1H
1*
0+
#1950000
1(
1<
0.
0M
0J
1G
1E
1-
#2340000
0(
0<
1.
1M
1J
0G
0E
0-
#2343750
1'
1?
0.
0J
1K
0L
1+
#2730000
1(
1<
1.
0M
1J
1G
1E
1-
#3120000
0(
0<
0.
1M
0J
0G
0E
0-
#3125000
1%
0&
0'
16
0;
0?
1.
1J
0=
17
0K
0>
1)
1L
0H
0*
0+
#3510000
1(
1<
0.
0M
0J
1G
1E
1=
1H
1>
1-
0H
1*
0*
#3900000
0(
0<
1.
1M
1J
0G
0E
0=
1H
0>
0-
0H
1*
0*
#3906250
1'
1?
0.
0J
1K
0L
1+
#4290000
1(
1<
1.
0M
1J
1G
1E
1=
1H
1>
1-
0H
1*
0*
#4680000
0(
0<
0.
1M
0J
0G
0E
0=
1H
0>
0-
0H
1*
0*
#4687500
1&
0'
1;
0?
1.
1J
1=
0K
1>
1L
1H
1*
0+
#5070000
1(
1<
0.
0M
0J
1G
1E
0=
0H
0>
1-
1H
0*
1*
#5460000
0(
0<
1.
1M
1J
0G
0E
1=
0H
1>
0-
1H
0*
1*
#5468750
1'
1?
0.
0J
1K
0L
1+
#5850000
1(
1<
1.
0M
1J
1G
1E
0=
0H
0>
1-
1H
0*
1*
#6240000
0(
0<
0.
1M
0J
0G
0E
1=
0H
1>
0-
1H
0*
1*
#6250000
1$
0%
0&
0'
19
06
0;
0?
1.
1J
0=
07
0K
0>
0)
1L
0H
0*
0+
#6630000
1(
1<
0.
0M
1G
0@
1K
0I
1M
0G
1-
0N
0K
1I
0-
1N
1,
0,
#7020000
0(
0<
1.
0M
1@
0N
1M
1N
1,
0,
#7031250
1'
1?
0.
0J
1K
0L
1+
#7410000
1(
1<
1.
0M
1G
0K
0I
1-
#7800000
0(
0<
0.
1M
0G
1K
1I
0-
#7812500
1&
0'
1;
0?
1.
1J
1=
0K
1>
1L
1H
1*
0+
#8190000
1(
1<
0.
0M
0J
1G
1E
1-
#8580000
0(
0<
1.
1M
1J
0G
0E
0-
#8593750
1'
1?
0.
0J
1K
0L
1+
#8970000
1(
1<
1.
0M
1J
1G
1E
1-
#9360000
0(
0<
0.
1M
0J
0G
0E
0-
#9375000
1%
0&
0'
16
0;
0?
1.
1J
0=
17
0K
0>
1)
1L
0H
0*
0+
#9750000
1(
1<
0.
0M
0J
1G
1E
1=
1H
1>
1-
0H
1*
0*
#10140000
0(
0<
1.
1M
1J
0G
0E
0=
1H
0>
0-
0H
1*
0*
#10156250
1'
1?
0.
0J
1K
0L
1+
#10530000
1(
1<
1.
0M
1J
1G
1E
1=
1H
1>
1-
0H
1*
0*
#10920000
0(
0<
0.
1M
0J
0G
0E
0=
1H
0>
0-
0H
1*
0*
#10937500
1&
0'
1;
0?
1.
1J
1=
0K
1>
1L
1H
1*
0+
#11310000
1(
1<
0.
0M
0J
1G
1E
0=
0H
0>
1-
1H
0*
1*
#11700000
0(
0<
1.
1M
1J
0G
0E
1=
0H
1>
0-
1H
0*
1*
#11718750
1'
1?
0.
0J
1K
0L
1+
#12090000
1(
1<
1.
0M
1J
1G
1E
0=
0H
0>
1-
1H
0*
1*
#12480000
0(
0<
0.
1M
0J
0G
0E
1=
0H
1>
0-
1H
0*
1*
#12500000
1#
0$
0%
0&
0'
1A
09
06
0;
0?
1.
0C
1J
0=
07
0>
0)
0H
0*
#12870000
1(
1<
0.
0M
1G
0@
0K
0I
1M
0G
1-
1K
1I
0-
#13260000
0(
0<
1.
0M
1@
0N
1M
1N
1,
0,
#13281250
1'
1?
0.
0J
1F
0K
0M
0N
1L
1,
0+
#13650000
1(
1<
1.
1M
1N
0,
#14040000
0(
0<
0.
0M
0N
1,
#14062500
1&
0'
1;
0?
1.
1J
1=
0F
1K
1>
1M
1N
0L
1H
1*
0,
1+
#14430000
1(
1<
0.
0M
0J
1G
1E
1F
1-
1M
0G
0K
0-
1L
0+
#14820000
0(
0<
1.
0M
1J
0E
0N
1K
0F
0L
1M
1,
1N
1+
0,
#14843750
1'
1?
0.
0J
1F
0K
0M
0N
1L
1,
0+
#15210000
1(
1<
1.
1M
1J
1E
1N
1K
0F
0L
0M
1G
0,
0K
1-
1+
1L
0+
#15600000
0(
0<
0.
1M
0J
0G
0E
1F
0-
0M
0N
1,
#15625000
1%
0&
0'
16
0;
0?
1.
1J
0=
17
0F
1K
0>
1M
1)
1N
0L
0H
0*
0,
1+
#15990000
1(
1<
0.
0M
0J
1G
1E
1=
1H
1F
1>
1-
1M
0G
0H
1*
0K
1H
0-
0*
1L
1*
0+
#16380000
0(
0<
1.
0M
1J
0E
0=
0N
1K
0F
0>
0L
1M
0H
1,
1N
0*
1+
0,
#16406250
1'
1?
0.
0J
1F
0K
0M
0N
1L
1,
0+
#16770000
1(
1<
1.
1M
1J
1E
1=
1N
1K
0F
1>
0L
0M
1G
1H
0,
0K
0H
1-
1*
1+
1L
0*
0+
#17160000
0(
0<
0.
1M
0J
0G
0E
0=
1H
1F
0>
0-
0M
0H
1*
0N
0*
1,
#17187500
1&
0'
1;
0?
1.
1J
1=
0F
1K
1>
1M
1N
0L
1H
1*
0,
1+
#17550000
1(
1<
0.
0M
0J
1G
1E
0=
0H
1F
0>
1-
1M
0G
1H
0*
0K
0H
0-
1*
1L
0*
0+
#17940000
0(
0<
1.
0M
1J
0E
1=
0N
1K
0F
1>
0L
1M
1H
1,
1N
1*
1+
0,
#17968750
1'
1?
0.
0J
1F
0K
0M
0N
1L
1,
0+
#18330000
1(
1<
1.
1M
1J
1E
0=
1N
1K
0F
0>
0L
0M
1G
0H
0,
0K
1H
1-
0*
1+
1L
1*
0+
#18720000
0(
0<
0.
1M
0J
0G
0E
1=
0H
1F
1>
0-
0M
1H
0*
0N
1*
1,
#18750000
1$
0%
0&
0'
19
06
0;
0?
1.
1B
1J
0=
07
0F
1G
1K
0>
0)
1N
0K
0I
0H
0L
1-
0*
0,
1+
#19110000
1(
1<
0.
1M
0@
0N
0M
1N
1,
0,
#19500000
0(
0<
1.
1M
0G
1@
1K
1I
0M
1G
0-
0K
0I
1-
#19531250
1'
1?
0.
0J
1F
1K
1M
0G
0N
1L
0K
1I
0-
1N
1,
0+
0,
#19890000
1(
1<
1.
0M
1G
1K
0I
1-
0N
1,
#20280000
0(
0<
0.
1M
0G
0K
1I
0-
1N
0,
#20312500
1&
0'
1;
0?
1.
1J
1=
0F
1K
1>
0M
1G
0L
1H
0K
1-
1L
1*
1+
0+
#20670000
1(
1<
0.
1M
0J
1E
0N
1K
1F
0L
0M
1,
1N
1+
0,
#21060000
0(
0<
1.
1M
1J
0G
0E
0F
0-
0M
1G
0K
1-
1L
0+
#21093750
1'
1?
0.
0J
1F
1K
1M
0G
0L
0K
0-
1L
1+
0+
#21450000
1(
1<
1.
0M
1J
1G
1E
0F
1-
1M
0N
1,
#21840000
0(
0<
0.
0M
0J
0E
1N
1K
1F
0L
1M
0G
0,
0K
0-
1+
1L
0+
#21875000
1%
0&
0'
16
0;
0?
1.
1J
0=
17
0F
1K
0>
0M
1G
1)
0L
0K
1-
1L
1+
0+
#22230000
1(
1<
0.
1M
0J
1E
1=
0N
1K
1F
1>
0L
0M
0H
1,
1N
0*
1+
0,
#22620000
0(
0<
1.
1M
1J
0G
0E
0=
1H
0F
0>
0-
0M
1G
0H
1*
0K
1H
1-
0*
1L
1*
0+
#22656250
1'
1?
0.
0J
1F
1K
1M
0G
0L
0K
0H
0-
1L
0*
1+
0+
#23010000
1(
1<
1.
0M
1J
1G
1E
1=
1H
0F
1>
1-
1M
0H
1*
0N
0*
1,
#23400000
0(
0<
0.
0M
0J
0E
0=
1N
1K
1F
0>
0L
1M
0G
1H
0,
0K
0H
0-
1*
1+
1L
0*
0+
#23437500
1&
0'
1;
0?
1.
1J
1=
0F
1K
1>
0M
1G
0L
0K
1-
1L
1+
0+
#23790000
1(
1<
0.
1M
0J
1E
0=
0N
1K
1F
0>
0L
0M
1H
1,
1N
1*
1+
0,
#24180000
0(
0<
1.
1M
1J
0G
0E
1=
0H
0F
1>
0-
0M
1G
1H
0*
0K
0H
1-
1*
1L
0*
0+
#24218750
1'
1?
0.
0J
1F
1K
1M
0G
0L
0K
1H
0-
1L
1*
1+
0+
#24570000
1(
1<
1.
0M
1J
1G
1E
0=
0H
0F
0>
1-
1M
1H
0*
0N
1*
1,
#24960000
0(
0<
0.
0M
0J
0E
1=
1N
1K
1F
1>
0L
1M
0G
0H
0,
0K
1H
0-
0*
1+
1L
1*
0+
#25000000
1"
0#
0$
0%
0&
0'
18
0A
09
06
0;
0?
1.
1C
0B
1:
1J
0=
07
0F
0)
#25350000
1(
1<
0.
0M
1G
0@
1K
1M
0G
1-
0L
0K
0-
1L
1+
0+
#25740000
0(
0<
1.
0M
1@
0N
1M
1N
1,
0,
#25781250
1'
1?
0.
0J
1K
0L
1+
#26130000
1(
1<
1.
0M
1G
0K
1-
1L
0+
#26520000
0(
0<
0.
1M
0G
1K
0-
0L
1+
#26562500
1&
0'
1;
0?
1.
1J
1=
0K
1D
0>
1L
1K
0H
0L
0*
0+
1+
#26910000
1(
1<
0.
0M
0J
1G
1E
0I
1F
1-
0N
1L
1M
0G
0K
1I
0-
1,
0+
1N
0,
#27300000
0(
0<
1.
0M
1J
0E
0N
1K
0F
0L
1M
1,
1N
1+
0,
#27343750
1'
1?
0.
0J
1F
0K
0M
0N
1L
1,
0+
#27690000
1(
1<
1.
1M
1J
1E
1N
1K
0F
0L
0M
1G
0,
0K
0I
1-
1+
#28080000
0(
0<
0.
1M
0J
0G
0E
1I
1F
0-
1L
0M
0N
0+
1,
#28125000
1%
0&
0'
16
0;
0?
1.
1J
0=
17
0F
1K
0D
1>
1M
1)
1N
0L
0K
1H
1L
1*
0,
1+
0+
#28470000
1(
1<
0.
0M
0J
1G
1E
1=
0H
1D
0>
1-
1K
1F
1H
0*
0L
1M
0G
1*
0K
0H
0-
1+
1L
0*
0+
#28860000
0(
0<
1.
0M
1J
0E
0=
0N
1K
0F
0D
1>
0L
1M
0K
1H
1,
1N
1L
1*
1+
0,
0+
#28906250
1'
1?
0.
0J
1K
0L
1+
#29250000
1(
1<
1.
0M
1J
1G
1E
1=
0H
1D
0>
1-
0K
1H
0*
1L
1*
0+
#29640000
0(
0<
0.
1M
0J
0G
0E
0=
0H
1F
0D
1>
0-
0M
1K
0F
1H
0*
0N
0L
1M
1*
1N
1,
1+
0,
#29687500
1&
0'
1;
0?
1.
1J
1=
0K
1D
0>
1L
1K
0H
0L
0*
0+
1+
#30030000
1(
1<
0.
0M
0J
1G
1E
0=
1H
1F
0D
1>
1-
1M
0G
0K
0F
0H
1*
1K
1H
1L
0M
1G
0-
0*
0L
0K
0H
1*
1-
0+
1L
0*
1+
0+
#30420000
0(
0<
1.
1M
1J
0G
0E
1=
1H
1D
0>
0-
1K
0H
1*
0L
0*
1+
#30468750
1'
1?
0.
0J
1F
0K
0M
0N
1L
1,
0+
#30810000
1(
1<
1.
1M
1J
1E
0=
1N
1K
0F
0D
1>
0L
0M
1G
0K
1H
0,
1K
0H
1L
1-
1*
1+
0L
0*
0+
1+
#31200000
0(
0<
0.
1M
0J
0G
0E
1=
1H
1D
0>
0-
0K
1F
0H
1*
1L
0M
0*
0N
0+
1,
#31250000
1$
0%
0&
0'
19
06
0;
0?
1.
0C
1B
1J
0=
07
0F
1F
1G
0D
1>
0)
1M
0G
1N
1H
0F
1-
1K
0M
1G
0-
1*
0,
0L
0K
1-
1L
1+
0+
#31590000
1(
1<
0.
1M
0@
0N
0M
1N
1,
0,
#31980000
0(
0<
1.
1M
0G
1@
1K
0M
1G
0-
0L
0K
1-
1L
1+
0+
#32031250
1'
1?
0.
0J
1F
1K
1M
0G
0L
0K
0-
1L
1+
0+
#32370000
1(
1<
1.
0M
1G
1K
1-
0L
1+
#32760000
0(
0<
0.
1M
0G
0K
0-
1L
0+
#32812500
1&
0'
1;
0?
1.
1J
1=
0F
1K
1D
0>
0M
1G
0L
1F
0I
0H
1-
1M
0G
0N
1L
0*
1+
0K
1I
0-
1,
0+
1N
0,
#33150000
1(
1<
0.
0M
0J
1G
1E
0I
1-
0L
1+
#33540000
0(
0<
1.
1M
1J
0G
0E
1I
0-
1L
0+
#33593750
1'
1?
0.
0J
1K
0L
1+
#33930000
1(
1<
1.
0M
1J
1G
1E
0I
1-
0N
1L
1,
0+
#34320000
0(
0<
0.
1M
0J
0G
0E
1I
0-
1N
0L
0,
1+
#34375000
1%
0&
0'
16
0;
0?
1.
1J
0=
17
0K
0D
1>
1)
1L
1K
0F
1H
0L
0M
1G
1*
0+
0K
0H
1-
1+
1L
0*
0+
#34710000
1(
1<
0.
1M
0J
1E
1=
0N
1K
1F
1D
0>
0L
0M
0K
1H
1,
1N
1L
1*
1+
0,
0+
#35100000
0(
0<
1.
1M
1J
0G
0E
0=
0H
0D
1>
0-
1K
0F
1H
0*
0L
0M
1G
1*
0K
0H
1-
1+
1L
0*
0+
#35156250
1'
1?
0.
0J
1F
1K
1M
0G
0L
0K
1H
0-
1L
1*
1+
0+
#35490000
1(
1<
1.
0M
1J
1G
1E
1=
0H
0F
1D
0>
1-
1M
1K
1F
1H
0*
0N
0L
0M
1*
1N
1,
1+
0,
#35880000
0(
0<
0.
1M
0J
0G
0E
0=
0H
0D
1>
0-
0K
1H
0*
1L
1*
0+
#35937500
1&
0'
1;
0?
1.
1J
1=
0F
1K
1D
0>
0M
1G
0L
1F
1-
1M
0G
1+
0K
0H
0-
1L
0*
0+
#36270000
1(
1<
0.
0M
0J
1G
1E
0=
1H
0D
1>
1-
1K
0H
1*
0L
0*
1+
#36660000
0(
0<
1.
1M
1J
0G
0E
1=
1H
0F
1D
0>
0-
0M
1G
0K
1F
0H
1*
1K
1H
1L
1M
0G
1-
0*
0L
0K
0H
1*
0-
0+
1L
0*
1+
0+
#36718750
1'
1?
0.
0J
1K
0L
1+
#37050000
1(
1<
1.
0M
1J
1G
1E
0=
1H
0D
1>
1-
0K
0F
0H
1*
1L
1M
0*
0N
0+
1,
#37440000
0(
0<
0.
0M
0J
0E
1=
1N
1K
1F
1D
0>
0L
1M
0G
0K
1H
0,
1K
0H
1L
0-
1*
1+
0L
0*
0+
1+
#37500000
1#
0$
0%
0&
0'
1A
09
06
0;
0?
1.
0B
1J
0=
07
0M
0K
0D
1>
0)
0N
1L
1K
0F
1H
0L
1M
1*
1,
0+
1N
1+
0,
#37830000
1(
1<
0.
0M
1G
0@
0K
1M
0G
1-
1L
1K
0-
0L
0+
1+
#38220000
0(
0<
1.
0M
1@
0N
1M
1N
1,
0,
#38281250
1'
1?
0.
0J
1F
0K
0M
0N
1L
1,
0+
#38610000
1(
1<
1.
1M
1N
0,
#39000000
0(
0<
0.
0M
0N
1,
#39062500
1&
0'
1;
0?
1.
1J
1=
0F
1K
1D
0>
1M
1N
0L
0K
1F
0H
1L
0M
0*
0,
1+
0N
0+
1,
#39390000
1(
1<
0.
1M
0J
1E
1N
1K
0L
0,
1+
#39780000
0(
0<
1.
0M
1J
0E
0N
0K
1L
1,
0+
#39843750
1'
1?
0.
0J
1K
0L
1+
#40170000
1(
1<
1.
1M
1J
1E
1N
0K
1L
0,
0+
#40560000
0(
0<
0.
0M
0J
0E
0N
1K
0L
1,
1+
#40625000
1%
0&
0'
16
0;
0?
1.
1J
0=
17
0K
0D
1>
1)
1L
1K
0F
1H
0L
1M
1*
0+
1N
1+
0,
#40950000
1(
1<
0.
0M
0J
1G
1E
1=
0H
1F
1D
0>
1-
1M
0G
0K
1H
0*
1K
0H
1L
0-
1*
0L
0*
0+
1+
#41340000
0(
0<
1.
0M
1J
0E
0=
0N
0K
0D
1>
1L
1K
0F
1H
1,
0L
1M
1*
0+
1N
1+
0,
#41406250
1'
1?
0.
0J
1F
0K
0M
0N
1L
1,
0+
#41730000
1(
1<
1.
1M
1J
1E
1=
1N
1K
0F
1D
0>
0L
0M
1G
0K
1F
0H
0,
1K
1H
1L
1M
0G
1-
0*
1+
0L
0K
0H
1*
0-
0+
1L
0*
1+
0+
#42120000
0(
0<
0.
0M
0J
0E
0=
0N
1K
0D
1>
0L
0K
1H
1,
1L
1*
1+
0+
#42187500
1&
0'
1;
0?
1.
1J
1=
0F
1K
1D
0>
1M
1N
0L
0K
1F
0H
1L
0M
0*
0,
1+
0N
0+
1,
#42510000
1(
1<
0.
1M
0J
1E
0=
1N
1K
0D
1>
0L
0K
1H
0,
1L
1*
1+
0+
#42900000
0(
0<
1.
0M
1J
0E
1=
0N
1K
0F
1D
0>
0L
1M
0K
1F
0H
1,
1N
1L
0M
0*
1+
0N
0,
0+
1,
#42968750
1'
1?
0.
0J
1K
0L
1+
#43290000
1(
1<
1.
1M
1J
1E
0=
1N
0K
0D
1>
1L
1K
0F
1H
0,
0L
0M
1G
1*
0+
0K
0H
1-
1+
1L
0*
0+
#43680000
0(
0<
0.
1M
0J
0G
0E
1=
1H
1F
1D
0>
0-
0M
1K
0H
1*
0N
0L
0*
1,
1+
#43750000
1$
0%
0&
0'
19
06
0;
0?
1.
1C
1B
1J
0=
07
0F
1M
0D
1>
0)
0M
1G
1N
0K
1H
1K
1L
1-
1*
0,
0L
0+
1+
#44070000
1(
1<
0.
1M
0@
0N
0M
1N
1,
0,
#44460000
0(
0<
1.
1M
0G
1@
0K
0M
1G
0-
1L
1K
1-
0L
0+
1+
#44531250
1'
1?
0.
0J
0K
1L
0+
#44850000
1(
1<
1.
1M
0N
1,
#45240000
0(
0<
0.
0M
1N
0,
#45312500
1&
0'
1;
0?
1.
1J
1=
1K
1D
0>
0L
0K
0I
0H
0*
1+
#45630000
1(
1<
0.
1M
0J
1E
0N
1K
1F
1N
1L
0M
1,
0N
0,
0+
1,
#46020000
0(
0<
1.
1M
1J
0G
0E
1I
0F
0-
1N
0L
0M
1G
0K
0I
1-
0,
1+
#46093750
1'
1?
0.
0J
1F
1K
1M
0G
0N
1L
0K
1I
0-
1N
1,
0+
0,
#46410000
1(
1<
1.
0M
1J
1G
1E
0I
0F
1-
0L
1M
0N
1+
1,
#46800000
0(
0<
0.
0M
0J
0E
1N
1K
1F
0N
1L
1M
0G
0,
0K
1I
0-
1,
0+
1N
0,
#46875000
1%
0&
0'
16
0;
0?
1.
1J
0=
17
0F
1K
0D
1>
0M
1G
1)
0L
1-
1+
#47190000
1(
1<
0.
1M
0J
1E
1=
0N
0K
1D
0>
1L
1K
1F
1H
1,
0L
0M
1*
0+
1N
1+
0,
#47580000
0(
0<
1.
1M
1J
0G
0E
0=
0H
0F
0D
1>
0-
0M
1G
0K
1H
0*
1K
0H
1L
1-
1*
0L
0*
0+
1+
#47656250
1'
1?
0.
0J
0K
1L
0+
#47970000
1(
1<
1.
1M
1J
1E
1=
0N
1K
1D
0>
0L
0K
1H
1,
1L
1*
1+
0+
#48360000
0(
0<
0.
0M
0J
0E
0=
1N
1K
1F
0D
1>
0L
1M
0G
0K
0F
0H
0,
1K
1H
1L
0M
1G
0-
0*
1+
0L
0K
0H
1*
1-
0+
1L
0*
1+
0+
#48437500
1&
0'
1;
0?
1.
1J
1=
1K
1D
0>
0L
0K
1H
1L
1*
1+
0+
#48750000
1(
1<
0.
1M
0J
1E
0=
0N
1K
1F
0D
1>
0L
0M
0K
0F
0H
1,
1N
1L
1M
0*
1+
0N
0,
0+
1,
#49140000
0(
0<
1.
0M
1J
0E
1=
1N
1K
1D
0>
0L
0K
1H
0,
1L
1*
1+
0+
#49218750
1'
1?
0.
0J
1F
1K
1M
0G
0L
0K
0H
0-
1L
0*
1+
0+
#49530000
1(
1<
1.
0M
1J
1G
1E
0=
1H
0F
0D
1>
1-
1M
1K
0H
1*
0N
0L
0*
1,
1+
#49920000
0(
0<
0.
0M
0J
0E
1=
1N
0K
1D
0>
1L
1K
1F
1H
0,
0L
1M
0G
1*
0+
0K
0H
0-
1+
1L
0*
0+
#50000000
1!
0"
0#
0$
0%
0&
0'
15
08
0A
09
06
0;
0?
1.
0B
0:
1J
0=
0F
0D
1K
0K
0L
1L
1+
0+
#50310000
1(
1<
0.
0M
1G
0@
1K
1H
1M
0G
1-
0L
0K
0H
1*
0-
1L
0*
1+
0+
#50700000
0(
0<
1.
0M
1@
0N
1M
1N
1,
0,
#50781250
1'
1?
0.
0J
1K
0L
1+
#51090000
1(
1<
1.
0M
1G
0K
1H
1-
1L
1*
0+
#51480000
0(
0<
0.
1M
0G
1K
0H
0-
0L
0*
1+
#51562500
1&
0'
1;
0?
1.
1J
1=
0K
1>
1L
1H
1*
0+
#51870000
1(
1<
0.
0M
0J
1G
1E
0H
1-
0*
#52260000
0(
0<
1.
1M
1J
0G
0E
1H
0-
1*
#52343750
1'
1?
0.
0J
1K
0L
1+
#52650000
1(
1<
1.
0M
1J
1G
1E
0H
1-
0*
#53040000
0(
0<
0.
1M
0J
0G
0E
1H
0-
1*
#53125000
1%
0&
0'
16
0;
0?
1.
1J
1D
0>
0=
07
0H
0D
1>
0)
0K
1H
0*
1L
1*
0+
#53430000
1(
1<
0.
0M
0J
1G
1E
1=
1D
0>
1-
1K
1F
0I
0H
0N
1M
0G
0*
0K
1I
0-
1,
1N
0,
#53820000
0(
0<
1.
0M
1J
0E
0=
0N
1K
0F
0D
1>
0L
1M
0K
1H
1,
1N
1L
1*
1+
0,
0+
#53906250
1'
1?
0.
0J
1K
0L
1+
#54210000
1(
1<
1.
0M
1J
1G
1E
1=
1D
0>
1-
0K
0I
0H
0*
#54600000
0(
0<
0.
1M
0J
0G
0E
0=
1I
1F
0D
1>
0-
1L
0M
1K
0F
1H
0N
0L
1M
1*
0+
1N
1,
1+
0,
#54687500
1&
0'
1;
0?
1.
1J
1=
0K
1D
0>
1L
1K
0H
0L
0*
0+
1+
#54990000
1(
1<
0.
0M
0J
1G
1E
0=
0I
1F
0D
1>
1-
0N
1L
1M
0G
0K
0F
1I
1H
1N
1K
0M
1G
0-
1*
1,
0+
0L
0K
1-
0,
1L
1+
0+
#55380000
0(
0<
1.
1M
1J
0G
0E
1=
1D
0>
0-
1K
0H
0L
0*
1+
#55468750
1'
1?
0.
0J
1F
0K
0M
0N
1L
1,
0+
#55770000
1(
1<
1.
1M
1J
1E
0=
1N
1K
0F
0D
1>
0L
0M
1G
0K
1H
0,
1K
1L
1-
1*
1+
0L
0+
1+
#56160000
0(
0<
0.
1M
0J
0G
0E
1=
1D
0>
0-
0K
1F
0H
1L
0M
0*
0N
0+
1,
#56250000
1$
0%
0&
0'
19
06
0;
0?
1.
0C
1B
1:
1J
0D
1>
0=
17
0F
1K
1G
1H
1)
1N
0L
0K
0H
1-
1*
1L
0*
0,
1+
0+
#56550000
1(
1<
0.
1M
0@
0N
0M
1N
1,
0,
#56940000
0(
0<
1.
1M
0G
1@
1K
1H
0M
1G
0-
0L
0K
0H
1*
1-
1L
0*
1+
0+
#57031250
1'
1?
0.
0J
1F
1K
1M
0G
0L
0K
1H
0-
1L
1*
1+
0+
#57330000
1(
1<
1.
0M
1G
1K
0H
1-
0L
0*
1+
#57720000
0(
0<
0.
1M
0G
0K
1H
0-
1L
1*
0+
#57812500
1&
0'
1;
0?
1.
1J
1=
0F
1K
1D
0>
0M
1G
0L
1F
1-
1M
0G
1+
0K
0H
0-
1L
0*
0+
#58110000
1(
1<
0.
0M
0J
1G
1E
1H
1-
1*
#58500000
0(
0<
1.
1M
1J
0G
0E
0H
0-
0*
#58593750
1'
1?
0.
0J
1K
0L
1+
#58890000
1(
1<
1.
0M
1J
1G
1E
1H
1-
1*
#59280000
0(
0<
0.
1M
0J
0G
0E
0H
0-
0*
#59375000
1%
0&
0'
16
0;
0?
1.
1J
1>
0=
07
0K
1H
0>
0)
1L
0H
1*
0*
0+
#59670000
1(
1<
0.
0M
0J
1G
1E
1=
0I
1>
1-
0L
1I
1H
1L
1*
1+
0+
#60060000
0(
0<
1.
1M
1J
0G
0E
0=
0>
0-
0H
0*
#60156250
1'
1?
0.
0J
1K
0L
1+
#60450000
1(
1<
1.
0M
1J
1G
1E
1=
0I
1>
1-
0N
1L
1I
1H
1N
0L
1*
1,
0+
0,
1+
#60840000
0(
0<
0.
1M
0J
0G
0E
0=
0>
0-
0H
0*
#60937500
1&
0'
1;
0?
1.
1J
1=
0K
1>
1L
1H
1*
0+
#61230000
1(
1<
0.
0M
0J
1G
1E
0=
0>
1-
0I
0H
0L
0*
1+
#61620000
0(
0<
1.
1M
1J
0G
0E
1=
1I
1>
0-
1L
1H
1*
0+
#61718750
1'
1?
0.
0J
1K
0L
1+
#62010000
1(
1<
1.
0M
1J
1G
1E
0=
0>
1-
0I
0H
0N
1L
0*
1,
0+
#62400000
0(
0<
0.
1M
0J
0G
0E
1=
1I
1>
0-
1N
0L
1H
1*
0,
1+
#62500000
1#
0$
0%
0&
0'
1A
09
06
0;
0?
1.
0B
0:
1J
0>
0=
17
0M
0D
0K
0H
1)
0N
1K
0F
1L
0*
0L
1M
1,
0+
1N
1+
0,
#62790000
1(
1<
0.
0M
1G
0@
0K
1H
1M
0G
1-
1L
1K
0H
1*
0-
0L
0*
0+
1+
#63180000
0(
0<
1.
0M
1@
0N
1M
1N
1,
0,
#63281250
1'
1?
0.
0J
1F
0K
0M
0N
1L
1,
0+
#63570000
1(
1<
1.
1M
1N
0,
#63960000
0(
0<
0.
0M
0N
1,
#64062500
1&
0'
1;
0?
1.
1J
1=
0F
1K
1>
1M
1N
0L
1H
1*
0,
1+
#64350000
1(
1<
0.
0M
0J
1G
1E
0H
1F
1-
1M
0G
0*
0K
1H
0-
1L
1*
0+
#64740000
0(
0<
1.
0M
1J
0E
0N
1K
0F
0L
1M
1,
1N
1+
0,
#64843750
1'
1?
0.
0J
1F
0K
0M
0N
1L
1,
0+
#65130000
1(
1<
1.
1M
1J
1E
1N
1K
0F
0L
0M
1G
0,
0K
0H
1-
1+
1L
0*
0+
#65520000
0(
0<
0.
1M
0J
0G
0E
1H
1F
0-
0M
1*
0N
1,
#65625000
1%
0&
0'
16
0;
0?
1.
1J
1D
0>
0=
07
0F
1F
0H
0D
1>
1M
0)
0M
1K
0F
1H
1N
0*
0N
0L
1M
1*
0,
1N
1,
1+
0,
#65910000
1(
1<
0.
0M
0J
1G
1E
1=
1F
1D
0>
1-
1M
0G
0K
0I
0H
1K
1I
0-
0*
#66300000
0(
0<
1.
0M
1J
0E
0=
0N
0K
0D
1>
1L
1K
0F
1H
1,
0L
1M
1*
0+
1N
1+
0,
#66406250
1'
1?
0.
0J
1F
0K
0M
0N
1L
1,
0+
#66690000
1(
1<
1.
1M
1J
1E
1=
1N
1K
0F
1D
0>
0L
0M
1G
0K
1F
0H
0,
1K
0I
1L
1M
0G
1-
0*
1+
0N
0K
1I
0-
0+
1N
1,
0,
#67080000
0(
0<
0.
0M
0J
0E
0=
0N
1K
0D
1>
0L
0K
1H
1,
1L
1*
1+
0+
