数字电子技术基础/数电实验/EDA02/EDA02文件/simulation/qsim/Final.msim.vcd
$comment
	File created using the following command:
		vcd file Final.msim.vcd -direction
$end
$date
	Thu Nov 17 16:04:23 2022
$end
$version
	ModelSim Version 10.1d
$end
$timescale
	1ps
$end
$scope module Final_vlg_vec_tst $end
$var reg 1 ! KEY0 $end
$var reg 1 " KEY1 $end
$var reg 1 # M0 $end
$var reg 1 $ M1 $end
$var reg 1 % M2 $end
$var reg 1 & M_Symbol $end
$var reg 1 ' N0 $end
$var reg 1 ( N1 $end
$var reg 1 ) N2 $end
$var reg 1 * N_Symbol $end
$var wire 1 + a $end
$var wire 1 , b $end
$var wire 1 - c $end
$var wire 1 . d $end
$var wire 1 / DIG0 $end
$var wire 1 0 DIG1 $end
$var wire 1 1 DIG2 $end
$var wire 1 2 DIG3 $end
$var wire 1 3 e $end
$var wire 1 4 f $end
$var wire 1 5 g $end
$var wire 1 6 LED0 $end
$var wire 1 7 LED1 $end
$var wire 1 8 LED2 $end
$var wire 1 9 LED3 $end
$var wire 1 : sampler $end
$scope module i1 $end
$var wire 1 ; gnd $end
$var wire 1 < vcc $end
$var wire 1 = unknown $end
$var tri1 1 > devclrn $end
$var tri1 1 ? devpor $end
$var tri1 1 @ devoe $end
$var wire 1 A inst213|inst2|inst6|inst4~0_combout $end
$var wire 1 B inst213|inst3|inst7|inst~combout $end
$var wire 1 C KEY1~combout $end
$var wire 1 D M2~combout $end
$var wire 1 E KEY0~combout $end
$var wire 1 F inst5|inst2|6~2_combout $end
$var wire 1 G N0~combout $end
$var wire 1 H M0~combout $end
$var wire 1 I M_Symbol~combout $end
$var wire 1 J inst213|inst|inst9|inst~0_combout $end
$var wire 1 K N2~combout $end
$var wire 1 L N1~combout $end
$var wire 1 M inst213|inst1|inst5|inst3~combout $end
$var wire 1 N inst213|inst1|inst4|inst~0_combout $end
$var wire 1 O inst213|inst|inst4|inst~0_combout $end
$var wire 1 P inst213|inst2|inst5|inst4~0_combout $end
$var wire 1 Q inst213|inst|inst5|inst~combout $end
$var wire 1 R inst213|inst2|inst6|inst4~1_combout $end
$var wire 1 S inst213|inst2|inst8|inst1~0_combout $end
$var wire 1 T inst213|inst2|inst5|inst1~0_combout $end
$var wire 1 U inst213|inst3|inst7|inst3~combout $end
$var wire 1 V inst213|inst3|inst2~0_combout $end
$var wire 1 W inst213|inst3|inst2~combout $end
$var wire 1 X inst213|inst3|inst9|inst~0_combout $end
$var wire 1 Y N_Symbol~combout $end
$var wire 1 Z inst213|inst3|inst9|inst~1_combout $end
$var wire 1 [ inst5|inst2|6~3_combout $end
$var wire 1 \ inst5|inst2|6~4_combout $end
$var wire 1 ] M1~combout $end
$var wire 1 ^ inst5|inst|6~0_combout $end
$var wire 1 _ inst9|inst2~0_combout $end
$var wire 1 ` inst4|inst8~0_combout $end
$var wire 1 a inst5|inst|6~1_combout $end
$var wire 1 b inst5|inst123213|6~0_combout $end
$var wire 1 c inst5|inst123213|6~1_combout $end
$var wire 1 d inst5|inst3|4~0_combout $end
$var wire 1 e inst4|inst|66~0_combout $end
$var wire 1 f inst4|inst|69~combout $end
$var wire 1 g inst4|inst|68~0_combout $end
$var wire 1 h inst4|inst|4~0_combout $end
$var wire 1 i inst4|inst|67~0_combout $end
$var wire 1 j inst4|inst|71~combout $end
$var wire 1 k inst4|inst|66~1_combout $end
$var wire 1 l inst4|inst|72~combout $end
$var wire 1 m inst4|inst8~1_combout $end
$var wire 1 n inst4|inst8~2_combout $end
$var wire 1 o inst4|inst8~3_combout $end
$var wire 1 p inst213|inst1|inst4|inst3~0_combout $end
$var wire 1 q inst1021132~0_combout $end
$var wire 1 r inst1123122~0_combout $end
$var wire 1 s inst1002~combout $end
$var wire 1 t inst12321~combout $end
$upscope $end
$upscope $end
$enddefinitions $end
#0
$dumpvars
0!
0"
0#
0$
0%
0&
0'
0(
0)
0*
1+
1,
1-
1.
0/
00
01
12
13
14
05
06
07
08
09
x:
0;
1<
x=
1>
1?
1@
0A
0B
0C
0D
0E
0F
0G
0H
0I
0J
0K
0L
1M
0N
0O
0P
1Q
0R
0S
0T
1U
1V
0W
1X
0Y
1Z
0[
0\
0]
0^
0_
0`
0a
0b
0c
0d
1e
0f
0g
0h
1i
0j
0k
1l
0m
0n
0o
1p
0q
0r
0s
0t
$end
#97800
1*
1Y
0:
0Z
1S
0M
1d
1t
1Z
1W
0U
0X
0S
0t
0W
1U
19
0d
09
#195000
1)
1K
1:
0V
1M
1W
1X
1S
1[
1t
0W
0U
19
#195600
0*
0Y
0:
0Z
0S
1_
0[
0t
1Z
1W
1U
1b
0_
1[
09
1c
0b
1k
1j
0i
1f
0c
0k
0j
1i
0f
0.
04
03
0+
1.
14
13
1+
#293400
1*
1Y
1:
0Z
1S
1_
0[
1t
1Z
0W
0U
1b
0_
1[
19
1c
0b
1k
1j
0i
1f
0c
0k
0j
1i
0f
0.
04
03
0+
1.
14
13
1+
#390000
1(
0)
1L
0K
0:
0p
1N
1A
1T
1U
1B
0[
#391200
0*
0Y
1:
0Z
1V
0S
0A
1_
0t
1Z
1b
0_
09
1c
0b
1k
1j
0i
1f
0c
0k
0j
1i
0f
0.
04
03
0+
1.
14
13
1+
#489000
1*
1Y
0:
0Z
0V
1S
1A
1_
1t
1Z
1b
0_
19
1c
0b
1k
1j
0i
1f
0c
0k
0j
1i
0f
0.
04
03
0+
1.
14
13
1+
#585000
1)
1K
1:
1V
1W
1[
#586800
0*
0Y
0:
0Z
0V
0S
0A
1_
0t
1Z
1b
0_
09
1c
0b
1k
1j
0i
1f
0c
0k
0j
1i
0f
0.
04
03
0+
1.
14
13
1+
#684600
1*
1Y
1:
0Z
1V
1S
1A
1_
1t
1Z
1b
0_
19
1c
0b
1k
1j
0i
1f
0c
0k
0j
1i
0f
0.
04
03
0+
1.
14
13
1+
#780000
1'
0(
0)
1G
0L
0K
0:
0V
0B
0W
0[
#782400
0*
0Y
1:
0Z
1V
0S
0N
0A
1d
0t
1Z
1B
0T
0d
0B
09
#880200
1*
1Y
0:
0Z
0V
1S
1N
1A
1d
1t
1Z
1B
1T
0d
0B
19
#975000
1)
1K
1:
1V
1W
1[
#978000
0*
0Y
0:
0Z
0V
0S
0N
0A
1_
0[
0t
1Z
1B
0T
1b
0_
1[
0B
09
1c
0b
1k
1j
0i
1f
0c
0k
0j
1i
0f
0.
04
03
0+
1.
14
13
1+
#1075800
1*
1Y
1:
0Z
1V
1S
1N
1A
1_
0[
1t
1Z
1B
1T
1b
0_
1[
0B
19
1c
0b
1k
1j
0i
1f
0c
0k
0j
1i
0f
0.
04
03
0+
1.
14
13
1+
#1170000
1(
0)
1L
0K
0:
0V
0N
0W
0T
0[
1B
#1173600
0*
0Y
1:
0Z
1V
0S
1N
0A
1_
0t
1Z
0B
1T
1b
0_
1B
09
1c
0b
1k
1j
0i
1f
0c
0k
0j
1i
0f
0.
04
03
0+
1.
14
13
1+
#1271400
1*
1Y
0:
0Z
0V
1S
0N
1A
1_
1t
1Z
0B
0T
1b
0_
1B
19
1c
0b
1k
1j
0i
1f
0c
0k
0j
1i
0f
0.
04
03
0+
1.
14
13
1+
#1365000
1)
1K
1:
1V
1W
1[
#1369200
0*
0Y
0:
0Z
0V
0S
1N
0A
1_
0t
1Z
0B
1T
1b
0_
1B
09
1c
0b
1k
1j
0i
1f
0c
0k
0j
1i
0f
0.
04
03
0+
1.
14
13
1+
#1467000
1*
1Y
1:
0Z
1V
1S
0N
1A
1_
1t
1Z
0B
0T
1b
0_
1B
19
1c
0b
1k
1j
0i
1f
0c
0k
0j
1i
0f
0.
04
03
0+
1.
14
13
1+
#1560000
1&
0'
0(
0)
1I
0G
0L
0K
0:
1p
0U
0M
0B
0A
1d
0[
0X
0S
0t
0W
1U
0d
09
#1564800
0*
0Y
1:
0Z
1M
1d
1X
1Z
0d
#1662600
1*
1Y
0:
0Z
1S
0M
1d
1t
1Z
1W
0U
0X
0S
0t
0W
1U
19
0d
09
#1755000
1)
1K
1:
0V
1M
1W
1X
1S
1[
1t
0W
0U
19
#1760400
0*
0Y
0:
0Z
0S
1_
0[
0t
1Z
1W
1U
1b
0_
1[
09
1c
0b
1k
1j
0i
1f
0c
0k
0j
1i
0f
0.
04
03
0+
1.
14
13
1+
#1858200
1*
1Y
1:
0Z
1S
1_
0[
1t
1Z
0W
0U
1b
0_
1[
19
1c
0b
1k
1j
0i
1f
0c
0k
0j
1i
0f
0.
04
03
0+
1.
14
13
1+
#1950000
1(
0)
1L
0K
0:
0p
1N
1A
1T
1U
1B
0[
#1956000
0*
0Y
1:
0Z
1V
0S
0A
1_
0t
1Z
1b
0_
09
1c
0b
1k
1j
0i
1f
0c
0k
0j
1i
0f
0.
04
03
0+
1.
14
13
1+
#2053800
1*
1Y
0:
0Z
0V
1S
1A
1_
1t
1Z
1b
0_
19
1c
0b
1k
1j
0i
1f
0c
0k
0j
1i
0f
0.
04
03
0+
1.
14
13
1+
#2145000
1)
1K
1:
1V
1W
1[
#2151600
0*
0Y
0:
0Z
0V
0S
0A
1_
0t
1Z
1b
0_
09
1c
0b
1k
1j
0i
1f
0c
0k
0j
1i
0f
0.
04
03
0+
1.
14
13
1+
#2249400
1*
1Y
1:
0Z
1V
1S
1A
1_
1t
1Z
1b
0_
19
1c
0b
1k
1j
0i
1f
0c
0k
0j
1i
0f
0.
04
03
0+
1.
14
13
1+
#2340000
1'
0(
0)
1G
0L
0K
0:
0V
0B
0W
0[
#2347200
0*
0Y
1:
0Z
1V
0S
0N
0A
1d
0t
1Z
1B
0T
0d
0B
09
#2445000
1*
1Y
0:
0Z
0V
1S
1N
1A
1d
1t
1Z
1B
1T
0d
0B
19
#2535000
1)
1K
1:
1V
1W
1[
#2542800
0*
0Y
0:
0Z
0V
0S
0N
0A
1_
0[
0t
1Z
1B
0T
1b
0_
1[
0B
09
1c
0b
1k
1j
0i
1f
0c
0k
0j
1i
0f
0.
04
03
0+
1.
14
13
1+
#2640600
1*
1Y
1:
0Z
1V
1S
1N
1A
1_
0[
1t
1Z
1B
1T
1b
0_
1[
0B
19
1c
0b
1k
1j
0i
1f
0c
0k
0j
1i
0f
0.
04
03
0+
1.
14
13
1+
#2730000
1(
0)
1L
0K
0:
0V
0N
0W
0T
0[
1B
#2738400
0*
0Y
1:
0Z
1V
0S
1N
0A
1_
0t
1Z
0B
1T
1b
0_
1B
09
1c
0b
1k
1j
0i
1f
0c
0k
0j
1i
0f
0.
04
03
0+
1.
14
13
1+
#2836200
1*
1Y
0:
0Z
0V
1S
0N
1A
1_
1t
1Z
0B
0T
1b
0_
1B
19
1c
0b
1k
1j
0i
1f
0c
0k
0j
1i
0f
0.
04
03
0+
1.
14
13
1+
#2925000
1)
1K
1:
1V
1W
1[
#2934000
0*
0Y
0:
0Z
0V
0S
1N
0A
1_
0t
1Z
0B
1T
1b
0_
1B
09
1c
0b
1k
1j
0i
1f
0c
0k
0j
1i
0f
0.
04
03
0+
1.
14
13
1+
#3031800
1*
1Y
1:
0Z
1V
1S
0N
1A
1_
1t
1Z
0B
0T
1b
0_
1B
19
1c
0b
1k
1j
0i
1f
0c
0k
0j
1i
0f
0.
04
03
0+
1.
14
13
1+
#3120000
0&
0'
0(
0)
0I
0G
0L
0K
0:
1p
0U
0M
0B
0A
1d
0[
0X
0S
0t
0W
1U
0d
09
#3125000
1%
1D
1:
0Q
1W
1[
#3129600
0*
0Y
0:
0Z
1M
1_
0[
1X
1b
1Z
1c
0_
1[
1k
1j
0i
1f
0b
0c
0.
04
03
0+
0k
0j
1i
0f
1.
14
13
1+
#3227400
1*
1Y
1:
0Z
1S
0M
1_
0[
1t
1Z
0W
0U
0X
0S
1b
0_
1[
0t
1W
1U
19
1c
0b
09
1k
1j
0i
1f
0c
0k
0j
1i
0f
0.
04
03
0+
1.
14
13
1+
#3315000
1)
1K
0:
0V
1R
1M
0W
0Z
1X
1d
0[
1Z
0d
#3325200
0*
0Y
1:
0Z
1d
#3423000
1*
1Y
0:
1Z
0d
#3510000
1(
0)
1L
0K
1:
0p
1N
1A
0R
1T
1R
0Z
1S
1B
0S
1d
1t
1W
0d
1_
1[
0t
1Z
0W
19
1b
0_
0[
09
1c
0b
1k
1j
0i
1f
0c
0k
0j
1i
0f
0.
04
03
0+
1.
14
13
1+
#3520800
0*
0Y
0:
0Z
1V
0A
1_
1W
0R
1b
1[
1Z
1c
0_
1k
1j
0i
1f
0b
0c
0.
04
03
0+
0k
0j
1i
0f
1.
14
13
1+
#3618600
1*
1Y
1:
0Z
0V
1S
1A
1_
1t
1Z
1R
1b
0_
0Z
0S
19
1c
0b
1_
0t
1Z
0W
1k
1j
0i
1f
0c
1b
0_
0[
09
0k
0j
1i
0f
1c
0b
0.
04
03
0+
1k
1j
0i
1f
0c
1.
14
13
1+
0k
0j
1i
0f
0.
04
03
0+
1.
14
13
1+
#3705000
1)
1K
0:
1V
0R
1W
0Z
1S
1_
1[
1t
1Z
0W
1b
0_
0[
19
1c
0b
1k
1j
0i
1f
0c
0k
0j
1i
0f
0.
04
03
0+
1.
14
13
1+
#3716400
0*
0Y
1:
0Z
0V
0S
0A
1_
0t
1Z
1R
1b
0_
0Z
09
1c
0b
1_
1k
1j
0i
1f
0c
1b
0k
0j
1i
0f
1c
0.
04
03
0+
1k
1j
0i
1f
1.
14
13
1+
0.
04
03
0+
#3814200
1*
1Y
0:
1Z
1V
1A
0_
1W
0R
0b
1[
0Z
1S
0c
1_
1t
1Z
0W
0k
0j
1i
0f
1b
0_
0[
19
1c
0b
1.
14
13
1+
1k
1j
0i
1f
0c
0k
0j
1i
0f
0.
04
03
0+
1.
14
13
1+
#3900000
1'
0(
0)
1G
0L
0K
1:
0V
0B
1R
1W
0Z
0S
1_
0t
1Z
0W
1B
1b
0_
09
1c
0b
1k
1j
0i
1f
0c
0k
0j
1i
0f
0.
04
03
0+
1.
14
13
1+
#3912000
0*
0Y
0:
0Z
1V
0N
0A
1_
1W
0T
0R
1b
1[
0B
1Z
1c
0_
1k
1j
0i
1f
0b
0c
0.
04
03
0+
0k
0j
1i
0f
1.
14
13
1+
#4009800
1*
1Y
1:
0Z
0V
1S
1N
1A
1_
0[
1t
1Z
1B
1T
1R
1b
0_
1[
0B
0Z
0S
19
1c
0b
1_
0[
0t
1Z
0W
1B
1k
1j
0i
1f
0c
1b
0_
09
0k
0j
1i
0f
1c
0b
0.
04
03
0+
1k
1j
0i
1f
0c
1.
14
13
1+
0k
0j
1i
0f
0.
04
03
0+
1.
14
13
1+
#4095000
1)
1K
0:
1V
0R
1W
0Z
1S
1_
1[
1t
1Z
0W
0B
1b
0_
0[
19
1c
0b
1k
1j
0i
1f
0c
0k
0j
1i
0f
0.
04
03
0+
1.
14
13
1+
#4107600
0*
0Y
1:
0Z
0V
0S
0N
0A
1d
0t
1Z
1B
0T
1R
0d
0B
0Z
09
1d
#4205400
1*
1Y
0:
1Z
1V
1N
1A
0d
1W
1T
0R
1[
1B
0Z
1S
1_
1t
1Z
0W
0B
1b
0_
0[
19
1c
0b
1k
1j
0i
1f
0c
0k
0j
1i
0f
0.
04
03
0+
1.
14
13
1+
#4290000
1(
0)
1L
0K
1:
0V
0N
1R
1W
0T
0Z
0S
1_
0t
1Z
0W
1b
0_
09
1c
0b
1k
1j
0i
1f
0c
0k
0j
1i
0f
0.
04
03
0+
1.
14
13
1+
#4303200
0*
0Y
0:
0Z
1V
1N
0A
1d
1W
1T
0R
0d
1_
1B
1Z
1b
0_
1[
1c
0b
1k
1j
0i
1f
0c
0k
0j
1i
0f
0.
04
03
0+
1.
14
13
1+
#4401000
1*
1Y
1:
0Z
0V
1S
0N
1A
1_
1t
1Z
0B
0T
1R
1b
0_
1B
0Z
0S
19
1c
0b
1_
0t
1Z
0W
0B
1k
1j
0i
1f
0c
1b
0_
0[
09
0k
0j
1i
0f
1c
0b
0.
04
03
0+
1k
1j
0i
1f
0c
1.
14
13
1+
0k
0j
1i
0f
0.
04
03
0+
1.
14
13
1+
#4485000
1)
1K
0:
1V
0R
1W
0Z
1S
1_
1t
1Z
0W
1B
1b
0_
19
1c
0b
1k
1j
0i
1f
0c
0k
0j
1i
0f
0.
04
03
0+
1.
14
13
1+
#4498800
0*
0Y
1:
0Z
0V
0S
1N
0A
1_
0t
1Z
0B
1T
1R
1b
0_
1B
0Z
09
1c
0b
1_
1k
1j
0i
1f
0c
1b
0k
0j
1i
0f
1c
0.
04
03
0+
1k
1j
0i
1f
1.
14
13
1+
0.
04
03
0+
#4596600
1*
1Y
0:
1Z
1V
0N
1A
0_
1W
0T
0R
0b
1[
0B
0Z
1S
0c
1_
0[
1t
1Z
0W
1B
0k
0j
1i
0f
1b
0_
19
1c
0b
1.
14
13
1+
1k
1j
0i
1f
0c
0k
0j
1i
0f
0.
04
03
0+
1.
14
13
1+
#4680000
1&
0'
0(
0)
1I
0G
0L
0K
1:
1J
1p
0U
0M
0B
0A
1R
0S
1[
0R
0Z
0t
1W
1U
1S
1_
0[
1t
1Z
0W
0U
1b
09
0_
1[
1c
19
0b
1k
1j
0i
1f
0c
0.
04
03
0+
0k
0j
1i
0f
1.
14
13
1+
#4694400
0*
0Y
0:
0Z
0S
1M
1_
0[
0t
1Z
1W
1U
0X
1S
1b
0_
1[
1t
0W
0U
09
1c
0b
19
1k
1j
0i
1f
0c
0k
0j
1i
0f
0.
04
03
0+
1.
14
13
1+
#4792200
1*
1Y
1:
0Z
0M
1_
0[
1X
1b
1Z
1c
0_
1[
1k
1j
0i
1f
0b
0c
0.
04
03
0+
0k
0j
1i
0f
1.
14
13
1+
#4875000
1)
1K
0:
0V
1R
1M
1W
0Z
0X
0[
1Z
1d
#4890000
0*
0Y
1:
0Z
0S
0d
0t
1Z
0W
1U
09
#4987800
1*
1Y
0:
0Z
1S
1d
1t
1Z
1W
0U
19
#5070000
1(
0)
1L
0K
1:
0p
1N
1A
0R
1T
1R
0Z
1U
1B
1Z
0d
1[
#5085600
0*
0Y
0:
0Z
1V
0S
0A
1_
0t
1Z
0R
1b
0_
0Z
1S
09
1c
0b
1_
1t
1Z
0W
1k
1j
0i
1f
0c
1b
0_
0[
19
0k
0j
1i
0f
1c
0b
0.
04
03
0+
1k
1j
0i
1f
0c
1.
14
13
1+
0k
0j
1i
0f
0.
04
03
0+
1.
14
13
1+
#5183400
1*
1Y
1:
0Z
0V
1A
1_
1W
1R
1b
1[
1Z
1c
0_
1k
1j
0i
1f
0b
0c
0.
04
03
0+
0k
0j
1i
0f
1.
14
13
1+
#5265000
1)
1K
0:
1V
0R
0W
0Z
1_
0[
1b
1c
1k
1j
0i
1f
0.
04
03
0+
#5281200
0*
0Y
1:
1Z
0V
0A
0_
1W
1R
0b
1[
0Z
0S
0c
1_
0t
1Z
0W
0k
0j
1i
0f
1b
0_
0[
09
1c
0b
1.
14
13
1+
1k
1j
0i
1f
0c
0k
0j
1i
0f
0.
04
03
0+
1.
14
13
1+
#5379000
1*
1Y
0:
0Z
1V
1S
1A
1_
1t
1Z
0R
1b
0_
0Z
19
1c
0b
1_
1k
1j
0i
1f
0c
1b
0k
0j
1i
0f
1c
0.
04
03
0+
1k
1j
0i
1f
1.
14
13
1+
0.
04
03
0+
#5460000
1'
0(
0)
1G
0L
0K
1:
0V
0B
1R
1W
1d
0_
1Z
0d
1[
0b
0c
0k
0j
1i
0f
1.
14
13
1+
#5476800
0*
0Y
0:
0Z
1V
0S
0N
0A
1_
0[
0t
1Z
1B
0T
0R
1b
0_
1[
0B
0Z
1S
09
1c
0b
1_
0[
1t
1Z
0W
1B
1k
1j
0i
1f
0c
1b
0_
19
0k
0j
1i
0f
1c
0b
0.
04
03
0+
1k
1j
0i
1f
0c
1.
14
13
1+
0k
0j
1i
0f
0.
04
03
0+
1.
14
13
1+
#5574600
1*
1Y
1:
0Z
0V
1N
1A
1_
1W
1T
1R
1b
1[
0B
1Z
1c
0_
1k
1j
0i
1f
0b
0c
0.
04
03
0+
0k
0j
1i
0f
1.
14
13
1+
#5655000
1)
1K
0:
1V
0R
0W
0Z
1d
0[
#5672400
0*
0Y
1:
1Z
0V
0N
0A
0d
1W
0T
1R
1[
1B
0Z
0S
1_
0t
1Z
0W
0B
1b
0_
0[
09
1c
0b
1k
1j
0i
1f
0c
0k
0j
1i
0f
0.
04
03
0+
1.
14
13
1+
#5770200
1*
1Y
0:
0Z
1V
1S
1N
1A
1d
1t
1Z
1B
1T
0R
0d
0B
0Z
19
1d
#5850000
1(
0)
1L
0K
1:
0V
0N
1R
1W
0T
1Z
0d
1[
1B
#5868000
0*
0Y
0:
0Z
1V
0S
1N
0A
1_
0t
1Z
0B
1T
0R
1b
0_
1B
0Z
1S
09
1c
0b
1_
1t
1Z
0W
0B
1k
1j
0i
1f
0c
1b
0_
0[
19
0k
0j
1i
0f
1c
0b
0.
04
03
0+
1k
1j
0i
1f
0c
1.
14
13
1+
0k
0j
1i
0f
0.
04
03
0+
1.
14
13
1+
#5965800
1*
1Y
1:
0Z
0V
0N
1A
1d
1W
0T
1R
0d
1_
1B
1Z
1b
0_
1[
1c
0b
1k
1j
0i
1f
0c
0k
0j
1i
0f
0.
04
03
0+
1.
14
13
1+
#6045000
1)
1K
0:
1V
0R
0W
0Z
1_
0[
1b
1c
1k
1j
0i
1f
0.
04
03
0+
#6063600
0*
0Y
1:
1Z
0V
1N
0A
0_
1W
1T
1R
0b
1[
0B
0Z
0S
0c
1_
0[
0t
1Z
0W
1B
0k
0j
1i
0f
1b
0_
09
1c
0b
1.
14
13
1+
1k
1j
0i
1f
0c
0k
0j
1i
0f
0.
04
03
0+
1.
14
13
1+
#6161400
1*
1Y
0:
0Z
1V
1S
0N
1A
1_
1t
1Z
0B
0T
0R
1b
0_
1B
0Z
19
1c
0b
1_
1k
1j
0i
1f
0c
1b
0k
0j
1i
0f
1c
0.
04
03
0+
1k
1j
0i
1f
1.
14
13
1+
0.
04
03
0+
#6240000
0&
0'
0(
0)
0I
0G
0L
0K
1:
0J
1p
0U
0M
0B
0A
1R
0S
0R
1Z
0t
1W
1U
0_
1[
0b
09
0c
0k
0j
1i
0f
1.
14
13
1+
#6250000
1$
0%
1]
0D
0:
1Q
1O
0W
1T
0[
1B
#6259200
0*
0Y
1:
0Z
1M
1_
1X
1b
1Z
1c
0_
1k
1j
0i
1f
0b
0c
0.
04
03
0+
0k
0j
1i
0f
1.
14
13
1+
#6357000
1*
1Y
0:
0Z
1S
0M
1_
1t
1Z
1W
0X
0S
1b
0_
1[
0t
0W
19
1c
0b
0[
09
1k
1j
0i
1f
0c
0k
0j
1i
0f
0.
04
03
0+
1.
14
13
1+
#6435000
1)
1K
1:
0V
1M
1W
1X
1S
1[
1t
0W
0[
19
#6454800
0*
0Y
0:
0Z
0S
1_
0t
1Z
1W
1b
0_
1[
09
1c
0b
1k
1j
0i
1f
0c
0k
0j
1i
0f
0.
04
03
0+
1.
14
13
1+
#6552600
1*
1Y
1:
0Z
1S
1_
1t
1Z
0W
1b
0_
0[
19
1c
0b
1k
1j
0i
1f
0c
0k
0j
1i
0f
0.
04
03
0+
1.
14
13
1+
#6630000
1(
0)
1L
0K
0:
0p
1N
1A
0T
1P
0U
0B
1W
1R
1d
0Z
0S
0d
0t
1Z
0W
1U
09
#6650400
0*
0Y
1:
0Z
1V
0A
1d
1W
0R
0d
1_
1Z
1b
0_
1[
1c
0b
1k
1j
0i
1f
0c
0k
0j
1i
0f
0.
04
03
0+
1.
14
13
1+
#6748200
1*
1Y
0:
0Z
0V
1S
1A
1_
0[
1t
1Z
0U
1R
1b
1d
0_
0Z
0S
19
1c
0b
0d
0t
1Z
0W
1U
1k
1j
0i
1f
0c
09
0k
0j
1i
0f
0.
04
03
0+
1.
14
13
1+
#6825000
1)
1K
1:
1V
0R
1W
0Z
1S
1_
1t
1Z
0W
0U
1b
0_
1[
19
1c
0b
1k
1j
0i
1f
0c
0k
0j
1i
0f
0.
04
03
0+
1.
14
13
1+
#6846000
0*
0Y
0:
0Z
0V
0S
0A
1_
0[
0t
1Z
1U
1R
1b
0_
0Z
09
1c
0b
1d
1k
1j
0i
1f
0c
0k
0j
1i
0f
0.
04
03
0+
1.
14
13
1+
#6943800
1*
1Y
1:
1Z
1V
1A
0d
1W
0R
1[
0Z
1S
1_
0[
1t
1Z
0W
0U
1b
0_
1[
19
1c
0b
1k
1j
0i
1f
0c
0k
0j
1i
0f
0.
04
03
0+
1.
14
13
1+
#7020000
1'
0(
0)
1G
0L
0K
0:
0V
1U
1B
1R
1W
0[
0Z
0S
1_
1[
0t
1Z
0W
0B
1b
0_
0[
09
1c
0b
1k
1j
0i
1f
0c
0k
0j
1i
0f
0.
04
03
0+
1.
14
13
1+
#7041600
0*
0Y
1:
0Z
1V
0N
0A
1d
1W
1T
0P
0R
0d
1_
1B
0W
1Z
1b
0_
1c
0b
1k
1j
0i
1f
0c
0k
0j
1i
0f
0.
04
03
0+
1.
14
13
1+
#7139400
1*
1Y
0:
0Z
0V
1S
1N
1A
1_
1t
1Z
0B
0T
1P
1b
0_
1B
1W
1R
19
1c
0b
1[
0Z
0S
1k
1j
0i
1f
0c
1_
0t
1Z
0W
0B
0k
0j
1i
0f
1b
0_
0[
0.
09
04
03
0+
1c
0b
1.
14
13
1+
1k
1j
0i
1f
0c
0k
0j
1i
0f
0.
04
03
0+
1.
14
13
1+
#7215000
1)
1K
1:
1V
0R
1W
0Z
1S
1_
1t
1Z
0W
1B
1b
0_
19
1c
0b
1k
1j
0i
1f
0c
0k
0j
1i
0f
0.
04
03
0+
1.
14
13
1+
#7237200
0*
0Y
0:
0Z
0V
0S
0N
0A
1_
0t
1Z
0B
1T
0P
1R
1b
0_
1B
1W
0R
0Z
09
1c
0b
1_
1[
1Z
1k
1j
0i
1f
0c
1b
0_
0k
0j
1i
0f
1c
0b
0.
04
03
0+
1k
1j
0i
1f
0c
1.
14
13
1+
0k
0j
1i
0f
0.
04
03
0+
1.
14
13
1+
#7335000
1*
1Y
1:
0Z
1V
1S
1N
1A
1_
1t
1Z
0B
0T
1P
1b
0_
1B
0W
19
1c
0b
0[
1k
1j
0i
1f
0c
0k
0j
1i
0f
0.
04
03
0+
1.
14
13
1+
#7410000
1(
0)
1L
0K
0:
0V
0N
1R
1W
1T
0P
0Z
0S
1_
1[
0R
0t
1Z
1b
0Z
1S
0_
09
1c
1_
1t
1Z
0W
0B
0b
1k
1j
0i
1f
1b
0_
0[
0c
19
1c
0b
0k
0j
1i
0f
0.
04
03
0+
1k
1j
0i
1f
0c
1.
14
13
1+
0k
0j
1i
0f
0.
04
03
0+
1.
14
13
1+
#7432800
0*
0Y
1:
0Z
1V
0S
1N
0A
1d
0t
1Z
1B
0T
1P
0d
0B
1W
09
1[
#7530600
1*
1Y
0:
0Z
0V
1S
0N
1A
1_
0[
1t
1Z
1B
1T
0P
1R
1b
0_
1[
0B
0W
0R
0Z
0S
19
1c
0b
1d
0[
1S
0t
1W
1B
1k
1j
0i
1f
0c
1t
1Z
0W
0B
0d
1_
1[
09
0k
0j
1i
0f
0_
0[
1b
0.
19
04
03
0+
0b
1c
1.
14
13
1+
0c
1k
1j
0i
1f
0k
0j
1i
0f
0.
04
03
0+
1.
14
13
1+
#7605000
1)
1K
1:
1V
1W
1[
#7628400
0*
0Y
0:
0Z
0V
0S
1N
0A
1_
0[
0t
1Z
1B
0T
1P
1b
0_
1[
0B
0W
1R
09
1c
0b
0[
0Z
1k
1j
0i
1f
0c
1d
0k
0j
1i
0f
0.
04
03
0+
1.
14
13
1+
#7726200
1*
1Y
1:
1Z
1V
0N
1A
0d
1W
1T
0P
0R
1[
1B
0W
0Z
1S
1_
0[
1t
1Z
1W
0B
1b
0_
1[
19
1c
0b
1k
1j
0i
1f
0c
0k
0j
1i
0f
0.
04
03
0+
1.
14
13
1+
#7800000
1&
0'
0(
0)
1I
0G
0L
0K
0:
0Q
1J
1p
0M
1B
0A
0W
0[
#7824000
0*
0Y
1:
0Z
0S
1M
1_
0t
1Z
1W
0X
1S
1b
0_
1[
1t
0W
09
1c
0b
0[
19
1k
1j
0i
1f
0c
0k
0j
1i
0f
0.
04
03
0+
1.
14
13
1+
#7921800
1*
1Y
0:
0Z
0M
1_
1X
1b
1Z
1c
0_
1k
1j
0i
1f
0b
0c
0.
04
03
0+
0k
0j
1i
0f
1.
14
13
1+
#7995000
1)
1K
1:
0V
1R
1M
1W
0Z
0X
1_
1[
1Z
1b
0_
1c
0b
1k
1j
0i
1f
0c
0k
0j
1i
0f
0.
04
03
0+
1.
14
13
1+
#8019600
0*
0Y
0:
0Z
0S
1_
0t
1Z
0W
1b
0_
0[
09
1c
0b
1k
1j
0i
1f
0c
0k
0j
1i
0f
0.
04
03
0+
1.
14
13
1+
#8117400
1*
1Y
1:
0Z
1S
1_
1t
1Z
1W
1b
0_
1[
19
1c
0b
1k
1j
0i
1f
0c
0k
0j
1i
0f
0.
04
03
0+
1.
14
13
1+
#8190000
1(
0)
1L
0K
0:
0p
1N
1A
0R
0T
1P
1R
0Z
0U
0B
0W
1Z
1_
0_
1b
0b
1c
0c
1k
1j
0i
1f
0k
0j
1i
0f
0.
04
03
0+
1.
14
13
1+
#8215200
0*
0Y
1:
0Z
1V
0S
0A
1_
0[
0t
1Z
1U
1b
0_
09
1c
0b
1k
1j
0i
1f
0c
0k
0j
1i
0f
0.
04
03
0+
1.
14
13
1+
#8313000
1*
1Y
0:
0Z
0V
1S
1A
1d
1t
1Z
0U
0d
1[
19
#8385000
1)
1K
1:
1V
1W
1d
0[
#8410800
0*
0Y
0:
0Z
0V
0S
0A
0d
0t
1Z
1U
1[
09
