数字电子技术基础/数电实验/EDA01/mux_21/simulation/qsim/mux_21.msim.vcd
$comment
	File created using the following command:
		vcd file mux_21.msim.vcd -direction
$end
$date
	Wed Oct 05 13:54:11 2022
$end
$version
	ModelSim Version 10.1d
$end
$timescale
	1ps
$end
$scope module mux_21_vlg_vec_tst $end
$var reg 1 ! a $end
$var reg 1 " b $end
$var reg 1 # c $end
$var wire 1 $ Y $end
$var wire 1 % sampler $end
$scope module i1 $end
$var wire 1 & gnd $end
$var wire 1 ' vcc $end
$var wire 1 ( unknown $end
$var tri1 1 ) devclrn $end
$var tri1 1 * devpor $end
$var tri1 1 + devoe $end
$var wire 1 , b~combout $end
$var wire 1 - a~combout $end
$var wire 1 . c~combout $end
$var wire 1 / inst3~0_combout $end
$upscope $end
$upscope $end
$enddefinitions $end
#0
$dumpvars
0!
0"
0#
0$
x%
0&
1'
x(
1)
1*
1+
0,
0-
0.
0/
$end
#12500000
1#
1.
0%
#25000000
1"
0#
1,
0.
1%
#37500000
1#
1.
0%
1/
1$
#50000000
1!
0"
0#
1-
0,
0.
1%
#62500000
1#
1.
0%
0/
0$
#75000000
1"
0#
1,
0.
1%
1/
1$
#87500000
1#
1.
0%
