数字电子技术基础/数电实验/EDA/simulation/qsim/Clock.msim.vcd
$comment
	File created using the following command:
		vcd file Clock.msim.vcd -direction
$end
$date
	Thu Dec 01 17:29:15 2022
$end
$version
	ModelSim Version 10.1d
$end
$timescale
	1ps
$end
$scope module Block1_vlg_vec_tst $end
$var reg 1 ! pin_name1 $end
$var wire 1 " pin_name2 $end
$var wire 1 # sampler $end
$scope module i1 $end
$var wire 1 $ gnd $end
$var wire 1 % vcc $end
$var wire 1 & unknown $end
$var tri1 1 ' devclrn $end
$var tri1 1 ( devpor $end
$var tri1 1 ) devoe $end
$var wire 1 * inst1|7~regout $end
$var wire 1 + inst1|7~0_combout $end
$var wire 1 , pin_name1~combout $end
$var wire 1 - pin_name1~clkctrl_outclk $end
$var wire 1 . inst|6~0_combout $end
$var wire 1 / inst|6~regout $end
$var wire 1 0 inst|7~0_combout $end
$var wire 1 1 inst|7~regout $end
$var wire 1 2 inst|8~0_combout $end
$var wire 1 3 inst|8~regout $end
$var wire 1 4 inst|13~combout $end
$var wire 1 5 inst|9~regout $end
$var wire 1 6 inst1|6~0_combout $end
$var wire 1 7 inst1|6~regout $end
$var wire 1 8 inst1|45~0_combout $end
$var wire 1 9 inst1|8~0_combout $end
$var wire 1 : inst1|8~regout $end
$var wire 1 ; inst1|13~0_combout $end
$var wire 1 < inst1|9~regout $end
$var wire 1 = inst1|45~combout $end
$upscope $end
$upscope $end
$enddefinitions $end
#0
$dumpvars
0!
x"
x#
0$
1%
x&
1'
1(
1)
x*
x+
0,
x-
1.
0/
x0
01
x2
03
x4
05
x6
x7
x8
x9
x:
x;
x<
x=
$end
#143
0-
#267
0*
07
0:
0<
#632
04
#669
0=
#670
06
08
#1096
02
00
#1258
0+
#1348
0;
#1391
09
#4815
1"
#10000
1!
0#
#11140
1,
#11283
1-
#13088
1/
#13481
0.
#14184
10
#20000
0!
1#
#21140
0,
#21283
0-
#30000
1!
0#
#31140
1,
#31283
1-
#33088
0/
11
#33481
00
1.
#34184
10
#40000
0!
1#
#41140
0,
#41283
0-
#50000
1!
0#
#51140
1,
#51283
1-
#53088
1/
#53481
0.
#54184
12
00
#60000
0!
1#
#61140
0,
#61283
0-
#70000
1!
0#
#71140
1,
#71283
1-
#73088
0/
01
13
#73481
02
10
1.
#74184
12
00
#80000
0!
1#
#81140
0,
#81283
0-
#90000
1!
0#
#91140
1,
#91283
1-
#93088
1/
#93481
0.
#94184
10
#100000
0!
1#
#101140
0,
#101283
0-
#110000
1!
0#
#111140
1,
#111283
1-
#113088
0/
11
#113481
00
1.
#114184
10
#120000
0!
1#
#121140
0,
#121283
0-
#130000
1!
0#
#131140
1,
#131283
1-
#133088
1/
#133481
0.
#134152
14
#134184
02
00
#140000
0!
1#
#141140
0,
#141283
0-
#150000
1!
0#
#151140
1,
#151283
1-
#153088
0/
01
03
15
#153481
12
10
1.
#153756
00
#154184
02
#160000
0!
1#
#161140
0,
#161283
0-
#170000
1!
0#
#171140
1,
#171283
1-
#173088
1/
#173481
0.
#174152
04
#174189
16
#180000
0!
1#
#181140
0,
#181283
0-
#190000
1!
0#
#191140
1,
#191283
1-
#193088
0/
05
17
#193481
06
1.
#193758
16
#200000
0!
1#
#201140
0,
#201283
0-
#210000
1!
0#
#211140
1,
#211283
1-
#213088
1/
#213481
0.
#214184
10
#220000
0!
1#
#221140
0,
#221283
0-
#230000
1!
0#
#231140
1,
#231283
1-
#233088
0/
11
#233481
00
1.
#234184
10
#240000
0!
1#
#241140
0,
#241283
0-
#250000
1!
0#
#251140
1,
#251283
1-
#253088
1/
#253481
0.
#254184
12
00
#260000
0!
1#
#261140
0,
#261283
0-
#270000
1!
0#
#271140
1,
#271283
1-
#273088
0/
01
13
#273481
02
10
1.
#274184
12
00
#280000
0!
1#
#281140
0,
#281283
0-
#290000
1!
0#
#291140
1,
#291283
1-
#293088
1/
#293481
0.
#294184
10
#300000
0!
1#
#301140
0,
#301283
0-
#310000
1!
0#
#311140
1,
#311283
1-
#313088
0/
11
#313481
00
1.
#314184
10
#320000
0!
1#
#321140
0,
#321283
0-
#330000
1!
0#
#331140
1,
#331283
1-
#333088
1/
#333481
0.
#334152
14
#334184
02
00
#340000
0!
1#
#341140
0,
#341283
0-
#350000
1!
0#
#351140
1,
#351283
1-
#353088
0/
01
03
15
#353481
12
10
1.
#353756
00
#354184
02
#360000
0!
1#
#361140
0,
#361283
0-
#370000
1!
0#
#371140
1,
#371283
1-
#373088
1/
#373481
0.
#373938
18
#374152
04
#374189
06
#374526
1+
#380000
0!
1#
#381140
0,
#381283
0-
#390000
1!
0#
#391140
1,
#391283
1-
#393088
1*
0/
05
07
#393481
16
1.
0+
#393758
06
#394132
08
#394212
19
#394720
1+
#394721
09
#400000
0!
1#
#401140
0,
#401283
0-
#410000
1!
0#
#411140
1,
#411283
1-
#413088
1/
#413481
0.
#414184
10
#420000
0!
1#
#421140
0,
#421283
0-
#430000
1!
0#
#431140
1,
#431283
1-
#433088
0/
11
#433481
00
1.
#434184
10
#440000
0!
1#
#441140
0,
#441283
0-
#450000
1!
0#
#451140
1,
#451283
1-
#453088
1/
#453481
0.
#454184
12
00
#460000
0!
1#
#461140
0,
#461283
0-
#470000
1!
0#
#471140
1,
#471283
1-
#473088
0/
01
13
#473481
02
10
1.
#474184
12
00
#480000
0!
1#
#481140
0,
#481283
0-
#490000
1!
0#
#491140
1,
#491283
1-
#493088
1/
#493481
0.
#494184
10
#500000
0!
1#
#501140
0,
#501283
0-
#510000
1!
0#
#511140
1,
#511283
1-
#513088
0/
11
#513481
00
1.
#514184
10
#520000
0!
1#
#521140
0,
#521283
0-
#530000
1!
0#
#531140
1,
#531283
1-
#533088
1/
#533481
0.
#534152
14
#534184
02
00
#540000
0!
1#
#541140
0,
#541283
0-
#550000
1!
0#
#551140
1,
#551283
1-
#553088
0/
01
03
15
#553481
12
10
1.
#553756
00
#554184
02
#560000
0!
1#
#561140
0,
#561283
0-
#570000
1!
0#
#571140
1,
#571283
1-
#573088
1/
#573481
0.
#574152
04
#574189
16
#580000
0!
1#
#581140
0,
#581283
0-
#590000
1!
0#
#591140
1,
#591283
1-
#593088
0/
05
17
#593481
06
1.
#593758
16
#600000
0!
1#
#601140
0,
#601283
0-
#610000
1!
0#
#611140
1,
#611283
1-
#613088
1/
#613481
0.
#614184
10
#620000
0!
1#
#621140
0,
#621283
0-
#630000
1!
0#
#631140
1,
#631283
1-
#633088
0/
11
#633481
00
1.
#634184
10
#640000
0!
1#
#641140
0,
#641283
0-
#650000
1!
0#
#651140
1,
#651283
1-
#653088
1/
#653481
0.
#654184
12
00
#660000
0!
1#
#661140
0,
#661283
0-
#670000
1!
0#
#671140
1,
#671283
1-
#673088
0/
01
13
#673481
02
10
1.
#674184
12
00
#680000
0!
1#
#681140
0,
#681283
0-
#690000
1!
0#
#691140
1,
#691283
1-
#693088
1/
#693481
0.
#694184
10
#700000
0!
1#
#701140
0,
#701283
0-
#710000
1!
0#
#711140
1,
#711283
1-
#713088
0/
11
#713481
00
1.
#714184
10
#720000
0!
1#
#721140
0,
#721283
0-
#730000
1!
0#
#731140
1,
#731283
1-
#733088
1/
#733481
0.
#734152
14
#734184
02
00
#740000
0!
1#
#741140
0,
#741283
0-
#750000
1!
0#
#751140
1,
#751283
1-
#753088
0/
01
03
15
#753481
12
10
1.
#753756
00
#754184
02
#760000
0!
1#
#761140
0,
#761283
0-
#770000
1!
0#
#771140
1,
#771283
1-
#773088
1/
#773481
0.
#773938
18
#774152
04
#774189
06
#774526
0+
#774527
19
#780000
0!
1#
#781140
0,
#781283
0-
#790000
1!
0#
#791140
1,
#791283
1-
#793088
0*
0/
05
07
1:
#793481
09
16
1.
1+
#793758
06
#794132
08
#794212
19
#794720
0+
#800000
0!
1#
#801140
0,
#801283
0-
#810000
1!
0#
#811140
1,
#811283
1-
#813088
1/
#813481
0.
#814184
10
#820000
0!
1#
#821140
0,
#821283
0-
#830000
1!
0#
#831140
1,
#831283
1-
#833088
0/
11
#833481
00
1.
#834184
10
#840000
0!
1#
#841140
0,
#841283
0-
#850000
1!
0#
#851140
1,
#851283
1-
#853088
1/
#853481
0.
#854184
12
00
#860000
0!
1#
#861140
0,
#861283
0-
#870000
1!
0#
#871140
1,
#871283
1-
#873088
0/
01
13
#873481
02
10
1.
#874184
12
00
#880000
0!
1#
#881140
0,
#881283
0-
#890000
1!
0#
#891140
1,
#891283
1-
#893088
1/
#893481
0.
#894184
10
#900000
0!
1#
#901140
0,
#901283
0-
#910000
1!
0#
#911140
1,
#911283
1-
#913088
0/
11
#913481
00
1.
#914184
10
#920000
0!
1#
#921140
0,
#921283
0-
#930000
1!
0#
#931140
1,
#931283
1-
#933088
1/
#933481
0.
#934152
14
#934184
02
00
#940000
0!
1#
#941140
0,
#941283
0-
#950000
1!
0#
#951140
1,
#951283
1-
#953088
0/
01
03
15
#953481
12
10
1.
#953756
00
#954184
02
#960000
0!
1#
#961140
0,
#961283
0-
#970000
1!
0#
#971140
1,
#971283
1-
#973088
1/
#973481
0.
#974152
04
#974189
16
#980000
0!
1#
#981140
0,
#981283
0-
#990000
1!
0#
#991140
1,
#991283
1-
#993088
0/
05
17
#993481
06
1.
#993758
16
